"DisplayName","Source","Content","HintDisplayName","HintType","SourceDisplayName"
"Letting a Program Decrypt for You","bushyevergreen","While you have to use the `lights` program in `/home/elf/` to turn the lights on, you can delete parts in `/home/elf/lab/`.","Speaker UNPrep","terminal","Bushy Evergreen"
"Spoofy","alabastersnowball","The host is performing an ARP request. Perhaps we could do a spoof to perform a machine-in-the-middle attack. I think we have some sample scapy traffic scripts that could help you in `/home/guest/scripts`.","9) ARP Shenanigans","objective","Alabaster Snowball"
"Twirl Area","jingleringford","Make sure you Lasso the correct twirly area.","1) Uncover Santa's Gift List","objective","Jingle Ringford"
"Getting a Key Name","ribbbonbowford","[In JavaScript you can enumerate an object's keys using `keys`, and filter the array using `filter`](https://stackoverflow.com/questions/9907419/how-to-get-a-key-in-a-javascript-object-by-its-value).","Programming Concepts","terminal","Ribb Bonbowford"
"CAN Bus Talk","wunorseopenslae","Chris Elgee is talking about how [CAN traffic](https://www.youtube.com/watch?v=96u-uHRBI0I) works right now!","CAN-Bus Investigation","terminal","Wunorse Openslae"
"JavaScript Loops","ribbbonbowford","Did you try the JavaScript primer? There's a great section on looping.","Programming Concepts","terminal","Ribb Bonbowford"
"Proxmark Talk","bushyevergreen","Larry Pesce knows a thing or two about [HID attacks](https://www.youtube.com/watch?v=647U85Phxgo). He's the author of a course on wireless hacking!","5) Open HID Lock","objective","Bushy Evergreen"
"Image Edit Tool","jingleringford","There are [tools](https://www.photopea.com/) out there that could help Filter the Distortion that is this Twirl.","1) Uncover Santa's Gift List","objective","Jingle Ringford"
"Download File Mechanism","hollyevergreen","Once you know the path to the file, we need a way to download it!","8) Broken Tag Generator","objective","Holly Evergreen"
"Error Page Message Disclosure","hollyevergreen","Can you figure out the path to the script? It's probably on error pages!","8) Broken Tag Generator","objective","Holly Evergreen"
"Bucket_finder.rb","shinnyupatree","He even wrote a tool to [search for unprotected buckets](https://digi.ninja/projects/bucket_finder.php)!","2) Investigate S3 Bucket","objective","Shinny Upatree"
"Regex Practice","mintycandycane","Here's a place to try out your JS Regex expressions: [https://regex101.com/](https://regex101.com/)","Regex Toy Sorting","terminal","Minty Candycane"
"JavaScript Regex Cheat Sheet","mintycandycane","Handy quick reference for JS regular expression construction: [https://www.debuggex.com/cheatsheet/regex/javascript](https://www.debuggex.com/cheatsheet/regex/javascript)","Regex Toy Sorting","terminal","Minty Candycane"
"Redirect to Download","hollyevergreen","If you find a way to execute code blindly, I bet you can redirect to a file then download that file!","8) Broken Tag Generator","objective","Holly Evergreen"
"What's a Proxmark?","bushyevergreen","The Proxmark is a multi-function RFID device, capable of capturing and replaying RFID events.","5) Open HID Lock","objective","Bushy Evergreen"
"Electron Applications","sugarplummary","It's possible to extract the source code from an [Electron](https://www.electronjs.org/) app.","3) Point-of-Sale Password Recovery","objective","Sugarplum Mary"
"CAN ID Codes","wunorseopenslae","Try filtering out one CAN-ID at a time and create a table of what each might pertain to. What's up with the brakes and doors?","7) Solve the Sleigh's CAN-D-BUS Problem","objective","Wunorse Openslae"
"Santavator Operations","pepperminstix","It's really more art than science. The goal is to put the right colored light into the receivers on the left and top of the panel.","4) Operate the Santavator","objective","Pepper Minstix"
"Extra Instances","tanglecoalbox","Need extra Snowball Game instances? Pop them up in a new tab from [https://snowball2.kringlecastle.com](https://snowball2.kringlecastle.com).","Snowball Game","terminal","Tangle Coalbox"
"Terminal Tips","jewelloggins","You can copy and paste in terminals with `Ctrl`-`c` and `Ctrl`-`v` or `⌘`-`c` and `⌘`-`v`.",,,"Jewel Loggins"
"Content-Type Gotcha","hollyevergreen","If you're having trouble seeing the code, watch out for the Content-Type! Your browser might be trying to help (badly)!","8) Broken Tag Generator","objective","Holly Evergreen"
"Embedy ","alabastersnowball","The malware on the host does an HTTP request for a `.deb` package. Maybe we can get command line access by sending it a [command in a customized .deb file](http://www.wannescolman.be/?p=98)","9) ARP Shenanigans","objective","Alabaster Snowball"
"Blockchain ... Chaining","tanglecoalbox","A blockchain works by ""chaining"" blocks together - each new block includes a hash of the previous block. That previous hash value is included in the data that is hashed - and that hash value will be in the next block. So there's no way that Jack could change an existing block without it messing up the chain...","11b) Naughty/Nice List with Blockchain Investigation Part 2","objective","Tangle Coalbox"
"JavaScript Primer","ribbbonbowford","Want to learn a useful language? [JavaScript](https://jgthms.com/javascript-in-14-minutes/) is a great place to start! You can also test out your code using a [JavaScript playground](https://playcode.io/).","Programming Concepts","terminal","Ribb Bonbowford"
"Leaky AWS S3 Buckets","shinnyupatree","It seems like there's a new story every week about data exposed through unprotected [Amazon S3 buckets](https://www.computerweekly.com/news/252491842/Leaky-AWS-S3-bucket-once-again-at-centre-of-data-breach).","2) Investigate S3 Bucket","objective","Shinny Upatree"
"MD5 Hash Collisions","tanglecoalbox","If you have control over to bytes in a file, it's easy to create MD5 [hash collisions](https://github.com/corkami/collisions). Problem is: there's that nonce that he would have to know ahead of time.","11a) Naughty/Nice List with Blockchain Investigation Part 1","objective","Tangle Coalbox"
"PRNG Seeding","tanglecoalbox","While system time is probably most common, developers have the option to [seed](https://docs.python.org/3/library/random.html) pseudo-random number generators with other values.","Snowball Game","terminal","Tangle Coalbox"
"Blockchain Talk","tanglecoalbox","Qwerty Petabyte is giving [a talk](https://www.youtube.com/watch?v=7rLMl88p-ec) about blockchain tomfoolery!","11b) Naughty/Nice List with Blockchain Investigation Part 2","objective","Tangle Coalbox"
"Redis RCE","hollyevergreen","[This](https://book.hacktricks.xyz/pentesting/6379-pentesting-redis) is _kind of_ what we're trying to do...","Redis Bug Hunt","terminal","Holly Evergreen"
"Endpoint Exploration","hollyevergreen","Is there an endpoint that will print arbitrary files?","8) Broken Tag Generator","objective","Holly Evergreen"
"Command Injection","shinnyupatree","There's probably some kind of [command injection](https://owasp.org/www-community/attacks/Command_Injection) vulnerability in the menu terminal.","Kringle Kiosk","terminal","Shinny Upatree"
"Finding S3 Buckets","shinnyupatree","Robin Wood wrote up a guide about [finding these open S3 buckets](https://digi.ninja/blog/whats_in_amazons_buckets.php).","2) Investigate S3 Bucket","objective","Shinny Upatree"
"Twisted Talk","tanglecoalbox","Tom Liston is giving two talks at once - amazing! One is about the [Mersenne Twister](https://www.youtube.com/watch?v=Jo5Nlbqd-Vg).","Snowball Game","terminal","Tangle Coalbox"
"Block Investigation","tanglecoalbox","The idea that Jack could somehow change the data in a block without invalidating the whole chain just collides with the concept of hashes and blockchains. While there's no way it could happen, maybe if you look at the block that seems like it got changed, it might help.","11b) Naughty/Nice List with Blockchain Investigation Part 2","objective","Tangle Coalbox"
"Compressing JS","ribbbonbowford","There are lots of ways to [make your code shorter](https://jscompress.com/), but the number of *elf* commands is key.","Programming Concepts","terminal","Ribb Bonbowford"
"Santa's Wrapper3000","shinnyupatree","Santa's Wrapper3000 is pretty buggy. It uses several compression tools, binary to ASCII conversion, and other tools to wrap packages.","2) Investigate S3 Bucket","objective","Shinny Upatree"
"Filtering Items","ribbbonbowford","[There's got to be a way to `filter` for specific `typeof` items in an array](https://developer.mozilla.org/en-US/docs/Web/JavaScript/Reference/Global_Objects/TypedArray/filter). Maybe [the `typeof` operator](https://developer.mozilla.org/en-US/docs/Web/JavaScript/Reference/Operators/typeof) could also be useful?","Programming Concepts","terminal","Ribb Bonbowford"
"Data Decoding and Investigation","mintycandycane","Defenders often need to manipulate data to decRypt, deCode, and refourm it into something that is useful. [Cyber Chef](https://gchq.github.io/CyberChef/) is extremely useful here!","6) Splunk Challenge","objective","Minty Candycane"
"Splunk Basics","mintycandycane","There was a great [Splunk talk](https://www.youtube.com/watch?v=qbIhHhRKQCw) at KringleCon 2 that's still available!","6) Splunk Challenge","objective","Minty Candycane"
"Tmux Cheat Sheet","pepperminstix","There's a handy tmux reference available at [https://tmuxcheatsheet.com/](https://tmuxcheatsheet.com/)!","Unescape Tmux","terminal","Pepper Minstix"
"Unique Hash Collision","tanglecoalbox","If Jack was somehow able to change the contents of the block AND the document without changing the hash... that would require a very [UNIque hash COLLision](https://github.com/cr-marcstevens/hashclash).","11b) Naughty/Nice List with Blockchain Investigation Part 2","objective","Tangle Coalbox"
"Adding to Arrays","ribbbonbowford","`var array = [2, 3, 4]; array.push(1)` doesn't do QUITE what was intended...","Programming Concepts","terminal","Ribb Bonbowford"
"Strings in Binary Files","bushyevergreen","The `strings` command is common in Linux and available in Windows as part of SysInternals.","Speaker UNPrep","terminal","Bushy Evergreen"
"Source Code Retrieval","hollyevergreen","We might be able to find the problem if we can get source code!","8) Broken Tag Generator","objective","Holly Evergreen"
"Lookup Table","bushyevergreen","For polyalphabetic ciphers, if you have control over inputs and visibilty of outputs, lookup tables can save the day.","Speaker UNPrep","terminal","Bushy Evergreen"
"Adversary Emulation and Splunk","mintycandycane","Dave Herrald talks about emulating advanced adversaries and [hunting them with Splunk](https://www.youtube.com/watch?v=RxVgEFt08kU).","6) Splunk Challenge","objective","Minty Candycane"
"Source Code Analysis","hollyevergreen","I'm sure there's a vulnerability in the source somewhere... surely Jack wouldn't leave their mark?","8) Broken Tag Generator","objective","Holly Evergreen"
"Imposter Block Event","tanglecoalbox","Shinny Upatree swears that he doesn't remember writing the contents of the document found in that block. Maybe looking closely at the documents, you might find something interesting.","11b) Naughty/Nice List with Blockchain Investigation Part 2","objective","Tangle Coalbox"
"Electron ASAR Extraction","sugarplummary","There are [tools](https://www.npmjs.com/package/asar) and [guides](https://medium.com/how-to-electron/how-to-get-source-code-of-any-electron-application-cbb5c7726c37) explaining how to extract ASAR from Electron apps.","3) Point-of-Sale Password Recovery","objective","Sugarplum Mary"
"Mersenne Twister","tanglecoalbox","Python uses the venerable Mersenne Twister algorithm to generate PRNG values after seed. Given enough data, an attacker might [predict](https://github.com/kmyk/mersenne-twister-predictor/blob/master/readme.md) upcoming values.","Snowball Game","terminal","Tangle Coalbox"
"Short List of Essential Proxmark Commands","bushyevergreen","There's a [short list of essential Proxmark commands](https://gist.github.com/joswr1ght/efdb669d2f3feb018a22650ddc01f5f2) also available.","5) Open HID Lock","objective","Bushy Evergreen"
"Sniffy","alabastersnowball","Jack Frost must have gotten malware on our host at 10.6.6.35 because we can no longer access it. Try sniffing the eth0 interface using `tcpdump -nni eth0` to see if you can view any traffic from that host.","9) ARP Shenanigans","objective","Alabaster Snowball"
"Minimal Changes","tanglecoalbox","Apparently Jack was able to change just 4 bytes in the block to completely change everything about it. It's like some sort of [evil game](https://speakerdeck.com/ange/colltris) to him.","11b) Naughty/Nice List with Blockchain Investigation Part 2","objective","Tangle Coalbox"
"Impersonating Badges with Proxmark","bushyevergreen","You can also use a Proxmark to impersonate a badge to unlock a door, if the badge you impersonate has access. `lf hid sim -r 2006......`","5) Open HID Lock","objective","Bushy Evergreen"
"Reading Badges with Proxmark","bushyevergreen","You can use a Proxmark to capture the facility code and ID value of HID ProxCard badge by running `lf hid read` when you are close enough to someone with a badge.","5) Open HID Lock","objective","Bushy Evergreen"
"Resolvy","alabastersnowball","Hmmm, looks like the host does a DNS request after you successfully do an ARP spoof. Let's return a DNS response resolving the request to our IP.","9) ARP Shenanigans","objective","Alabaster Snowball"
"Santavator Bypass","ribbbonbowford","There _may_ be a way to bypass the Santavator S4 game with the browser console...","4) Operate the Santavator","objective","Ribb Bonbowford"
"Patience and Timing","hollyevergreen","Remember, the processing happens in the background so you might need to wait a bit after exploiting but before grabbing the output!","8) Broken Tag Generator","objective","Holly Evergreen"
"Filtering Text","wunorseopenslae","You can hide lines you don't want to see with commands like `cat file.txt | grep -v badstuff`","CAN-Bus Investigation","terminal","Wunorse Openslae"
"Find Santa's Package","shinnyupatree","Find Santa's `package` file from the cloud storage provider. Check Josh Wright's [talk](https://www.youtube.com/watch?v=t4UzXx5JHk0) for more tips!","2) Investigate S3 Bucket","objective","Shinny Upatree"
